{
	"info": {
		"_postman_id": "d5dbf95f-a574-4c4d-99a2-b09fac77ebc2",
		"name": "SC-GTFS_RT",
		"schema": "https://schema.getpostman.com/json/collection/v2.1.0/collection.json"
	},
	"item": [
		{
			"name": "orionEmul",
			"item": [
				{
					"name": "CreateEntity",
					"request": {
						"method": "POST",
						"header": [
							{
								"key": "fiware-service",
								"value": "scTest",
								"type": "text"
							},
							{
								"key": "Content-Type",
								"name": "Content-Type",
								"value": "application/json",
								"type": "text"
							}
						],
						"body": {
							"mode": "raw",
							"raw": "{\r\n\t\"id\": \"urn:ngsi-ld:ArrivalEstimation:Santander:metro1\",\r\n\t\"type\": \"ArrivalEstimation\",\r\n\t\"refGtfsTransitFeedFile\": {\r\n    \t\"value\": \"urn:ngsi-ld:GtfsTransitFeedFile:Santander:metro\"\r\n\t},\r\n\t\"routeId\": {\r\n    \t\"value\": \"route1\"\r\n\t},\r\n\t\"stopId\": {\r\n    \t\"value\": \"stop1\"\r\n\t},\r\n\t\"lastUpdatedAt\": {\r\n    \t\"value\": \"2018-12-19T10:14:00.238Z\",\r\n    \t\"type\": \"DateTime\"\r\n\t},\r\n\t\"arrivalEstimationUpdate\": {\r\n\t\t\"value\": [\r\n\t\t\t{\r\n\t\t\t\t\"tripId\": \"1\",\r\n\t\t\t\t\"arrivalDelay\": -2\r\n\t\t\t},\r\n\t\t\t{\r\n\t\t\t\t\"tripId\": \"2\",\r\n\t\t\t\t\"arrivalDelay\": -2\r\n\t\t\t},\r\n\t\t\t{\r\n\t\t\t\t\"tripId\": \"3\",\r\n\t\t\t\t\"arrivalDelay\": -2\r\n\t\t\t}\r\n\t\t]\r\n\t}\r\n}"
						},
						"url": {
							"raw": "orion-cb.tlmat.synchronicity-iot.eu:1026/v2/entities",
							"host": [
								"orion-cb",
								"tlmat",
								"synchronicity-iot",
								"eu"
							],
							"port": "1026",
							"path": [
								"v2",
								"entities"
							]
						}
					},
					"response": []
				},
				{
					"name": "UpdateEntity",
					"request": {
						"method": "POST",
						"header": [
							{
								"key": "fiware-service",
								"value": "scTest",
								"type": "text"
							},
							{
								"key": "Content-Type",
								"name": "Content-Type",
								"value": "application/json",
								"type": "text"
							}
						],
						"body": {
							"mode": "raw",
							"raw": "{\r\n\t\"refGtfsTransitFeedFile\": {\r\n    \t\"value\": \"urn:ngsi-ld:GtfsTransitFeedFile:Santander:metro\"\r\n\t},\r\n\t\"routeId\": {\r\n    \t\"value\": \"route1\"\r\n\t},\r\n\t\"stopId\": {\r\n    \t\"value\": \"stop1\"\r\n\t},\r\n\t\"lastUpdatedAt\": {\r\n    \t\"value\": \"2018-12-19T10:11:03.238Z\",\r\n    \t\"type\": \"DateTime\"\r\n\t},\r\n\t\"arrivalEstimationUpdate\": {\r\n\t\t\"value\": [\r\n\t\t\t{\r\n\t\t\t\t\"tripId\": \"1\",\r\n\t\t\t\t\"arrivalDelay\": -5,\r\n\t\t\t\t\"arrivalTime\": \"2018-12-19T10:12:02.238Z\"\r\n\t\t\t},\r\n\t\t\t{\r\n\t\t\t\t\"tripId\": \"2\",\r\n\t\t\t\t\"arrivalDelay\": -2\r\n\t\t\t},\r\n\t\t\t{\r\n\t\t\t\t\"tripId\": \"3\",\r\n\t\t\t\t\"arrivalDelay\": -1\r\n\t\t\t}\r\n\t\t]\r\n\t}\r\n}"
						},
						"url": {
							"raw": "orion-cb.tlmat.synchronicity-iot.eu:1026/v2/entities/urn:ngsi-ld:ArrivalEstimation:Santander:metro1/attrs",
							"host": [
								"orion-cb",
								"tlmat",
								"synchronicity-iot",
								"eu"
							],
							"port": "1026",
							"path": [
								"v2",
								"entities",
								"urn:ngsi-ld:ArrivalEstimation:Santander:metro1",
								"attrs"
							]
						}
					},
					"response": []
				},
				{
					"name": "Notification",
					"request": {
						"method": "POST",
						"header": [
							{
								"key": "Content-Type",
								"name": "Content-Type",
								"value": "application/json",
								"type": "text"
							}
						],
						"body": {
							"mode": "raw",
							"raw": "{\n\t\"data\": [\n\t{\n        \"id\": \"urn:ngsi-ld:ArrivalEstimation:Santander:1\",\n        \"type\": \"ArrivalEstimation\",\n        \"refGtfsTransitFeedFile\": \"urn:ngsi-ld:GtfsTransitFeedFile:Santander:bus\",\n        \"arrivalEstimationUpdate\": [\n        \t{\n        \t\t\"tripId\": \"0\",\n        \t\t\"arrivalDelay\": -1,\n        \t\t\"arrivalTime\": \"2018-12-19T10:15:00.00Z\",\n        \t\t\"vehicleId\": \"bus1\",\n        \t\t\"vehicleLabel\": \"bus1\"\n        \t},\n        \t{\n        \t\t\"tripId\": \"1\",\n        \t\t\"arrivalDelay\": -1,\n        \t\t\"arrivalTime\": \"2018-12-19T10:15:00.00Z\",\n        \t\t\"vehicleId\": \"bus1\",\n        \t\t\"vehicleLabel\": \"bus1\"\n        \t}\n        ],\n        \"routeId\": \"route3\",\n        \"stopId\": \"stop1\",\n        \"lastUpdatedAt\": \"2016-12-19T10:15:00.00Z\"\n    }\n]\n\t\n}"
						},
						"url": {
							"raw": "{{managementApi}}/notify",
							"host": [
								"{{managementApi}}"
							],
							"path": [
								"notify"
							]
						}
					},
					"response": []
				}
			]
		},
		{
			"name": "management",
			"item": [
				{
					"name": "feed",
					"request": {
						"method": "POST",
						"header": [],
						"body": {
							"mode": "raw",
							"raw": ""
						},
						"url": {
							"raw": "{{managementApi}}/management/feed/urn:ngsi-ld:GtfsTransitFeedFile:Santander:metro",
							"host": [
								"{{managementApi}}"
							],
							"path": [
								"management",
								"feed",
								"urn:ngsi-ld:GtfsTransitFeedFile:Santander:metro"
							]
						}
					},
					"response": []
				},
				{
					"name": "feed",
					"request": {
						"method": "GET",
						"header": [
							{
								"key": "Content-Type",
								"value": "application/octet-stream",
								"type": "text"
							}
						],
						"body": {
							"mode": "raw",
							"raw": ""
						},
						"url": {
							"raw": "{{managementApi}}/management/feed/urn:ngsi-ld:GtfsTransitFeedFile:Santander:metro",
							"host": [
								"{{managementApi}}"
							],
							"path": [
								"management",
								"feed",
								"urn:ngsi-ld:GtfsTransitFeedFile:Santander:metro"
							]
						}
					},
					"response": []
				},
				{
					"name": "feed",
					"request": {
						"method": "DELETE",
						"header": [],
						"body": {
							"mode": "raw",
							"raw": ""
						},
						"url": {
							"raw": "{{managementApi}}/management/feed/urn:ngsi-ld:GtfsTransitFeedFile:Santander:metro?time=2000-01-01",
							"host": [
								"{{managementApi}}"
							],
							"path": [
								"management",
								"feed",
								"urn:ngsi-ld:GtfsTransitFeedFile:Santander:metro"
							],
							"query": [
								{
									"key": "time",
									"value": "2000-01-01"
								}
							]
						}
					},
					"response": []
				},
				{
					"name": "loadFeed",
					"request": {
						"method": "POST",
						"header": [],
						"body": {
							"mode": "raw",
							"raw": ""
						},
						"url": {
							"raw": "{{managementApi}}/management/loadFeed/urn:ngsi-ld:GtfsTransitFeedFile:Santander:metro",
							"host": [
								"{{managementApi}}"
							],
							"path": [
								"management",
								"loadFeed",
								"urn:ngsi-ld:GtfsTransitFeedFile:Santander:metro"
							]
						}
					},
					"response": []
				},
				{
					"name": "feedList",
					"request": {
						"method": "GET",
						"header": [],
						"body": {
							"mode": "raw",
							"raw": ""
						},
						"url": {
							"raw": "{{managementApi}}/management/feedList",
							"host": [
								"{{managementApi}}"
							],
							"path": [
								"management",
								"feedList"
							]
						}
					},
					"response": []
				},
				{
					"name": "feeds",
					"request": {
						"method": "GET",
						"header": [],
						"body": {
							"mode": "raw",
							"raw": ""
						},
						"url": {
							"raw": "{{managementApi}}/management/feeds",
							"host": [
								"{{managementApi}}"
							],
							"path": [
								"management",
								"feeds"
							]
						}
					},
					"response": []
				},
				{
					"name": "feeds",
					"request": {
						"method": "DELETE",
						"header": [],
						"body": {
							"mode": "raw",
							"raw": ""
						},
						"url": {
							"raw": "{{managementApi}}/management/feeds",
							"host": [
								"{{managementApi}}"
							],
							"path": [
								"management",
								"feeds"
							]
						}
					},
					"response": []
				},
				{
					"name": "feedsLoad",
					"request": {
						"method": "POST",
						"header": [],
						"body": {
							"mode": "raw",
							"raw": ""
						},
						"url": {
							"raw": "{{managementApi}}/management/loadFeeds",
							"host": [
								"{{managementApi}}"
							],
							"path": [
								"management",
								"loadFeeds"
							]
						}
					},
					"response": []
				}
			]
		},
		{
			"name": "service",
			"item": [
				{
					"name": "gtfsrt",
					"request": {
						"method": "GET",
						"header": [],
						"body": {
							"mode": "raw",
							"raw": ""
						},
						"url": {
							"raw": "{{serviceApi}}/gtfsrt/urn:ngsi-ld:GtfsTransitFeedFile:Santander:metro",
							"host": [
								"{{serviceApi}}"
							],
							"path": [
								"gtfsrt",
								"urn:ngsi-ld:GtfsTransitFeedFile:Santander:metro"
							]
						}
					},
					"response": []
				}
			]
		}
	]
}